 N  0     0.00000000     0.00000000     0.00000000 H
 C  0     0.00000000     0.00000000     1.33500000 H
 H  0     0.94310200     0.00000000    -0.54450000 H
 H  0     0.94310200     0.00000000     1.87950000 H
 H  0    -0.94310200     0.00000000     1.87950000 H
 H  0    -0.94310200     0.00000000    -0.54450000 H
